Statistics: The Art & Science of Learning from Data | Muhammad Yaseen
…
2.2.1 Example

The following data shows the ID, Gender (Male, Female), Age, Race (Mexican American, Non-Hispanic Black, Non-Hispanic White, Other Hispanic, Other/Mixed), BMI, and BMI.Cat (Under Weight, Normal Weight, Over Weight, Obese) from the National Health and Nutrition Examination Survey (NHANES). The survey is conducted by the National Center for Health Statistics (NCHS), and data are publicly available at: https://www.cdc.gov/nchs/nhanes.htm . NHANES data are reported in well over one thousand peer-reviewed journal publications every year.

library(readxl)
library(tidyverse)
Data <-
  read_excel(path = "NHANES1.xlsx") |>
  mutate(
    Gender  = fct_relevel(Gender, "Male", "Female")
  , BMI.Cat = fct_relevel(BMI.Cat, "Under Weight", "Normal Weight", "Over Weight", "Obese")
    )
Data

# A tibble: 8,819 × 6
      ID Gender   Age Race                 BMI BMI.Cat      
   <dbl> <fct>  <dbl> <chr>              <dbl> <fct>        
 1 31128 Female    11 Non-Hispanic Black  17.4 Under Weight 
 2 31129 Male      15 Non-Hispanic Black  26.5 Over Weight  
 3 31131 Female    44 Non-Hispanic Black  30.9 Obese        
 4 31132 Male      70 Non-Hispanic White  24.7 Normal Weight
 5 31133 Female    16 Non-Hispanic Black  16.8 Under Weight 
 6 31134 Male      73 Non-Hispanic White  30.6 Obese        
 7 31137 Female    14 Non-Hispanic Black  27.8 Over Weight  
 8 31138 Male       3 Mexican American    16.1 Under Weight 
 9 31139 Female    18 Other Hispanic      29.4 Over Weight  
10 31140 Female    11 Non-Hispanic White  18.2 Under Weight 
# … with 8,809 more rows
…
